2 EuroDreams – Des boules et des jeux
…
}

Pour les écarts(« Espace uniforme » 2023), c’est « presque » pareil. Tous les écarts sont à \(0\) au départ1.

« Espace uniforme ». 2023. Wikipédia. https://fr.wikipedia.org/w/index.php?title=Espace_uniforme&oldid=209421187.

1 L’écart d’un numéro est toujours l’écart par rapport au tirage précédent lors duquel ce numéro est sorti et il n’y avait pas de tirage avant le premier.

On commence par augmenter tous les écarts de \(1\), puis on met à \(0\) les écarts des numéros du tirage examiné.

nums

# A tibble: 40 × 7
      nu    so  so_L  so_J    ec  ec_L  ec_J
   <int> <dbl> <dbl> <dbl> <dbl> <dbl> <dbl>
 1     1     6     3     3     4     2     6
 2     2    13     8     5     5     4     2
 3     3    12     5     7    10     5     7
 4     4     4     1     3     3    13     1
 5     5     7     2     5    25    14    12
 6     6     8     6     2     1     3     0
 7     7     6     3     3     1     1     0
 8     8     9     4     5    15     8     7
 9     9     6     3     3     0     0     5
10    10     9     4     5     3     6     1
# ℹ 30 more rows
…
Donc classement.

numsCL <- tibble(
  nu = nums$nu,
  so = min_rank(nums$so),
  so_L = min_rank(nums$so_L),
  so_J = min_rank(nums$so_J),
  ec = min_rank(nums$ec),
  ec_L = min_rank(nums$ec_L),
  ec_J = min_rank(nums$ec_J)
)

nums

# A tibble: 40 × 7
      nu    so  so_L  so_J    ec  ec_L  ec_J
   <int> <dbl> <dbl> <dbl> <dbl> <dbl> <dbl>
 1     1     6     3     3     4     2     6
 2     2    13     8     5     5     4     2
 3     3    12     5     7    10     5     7
 4     4     4     1     3     3    13     1
 5     5     7     2     5    25    14    12
 6     6     8     6     2     1     3     0
 7     7     6     3     3     1     1     0
 8     8     9     4     5    15     8     7
 9     9     6     3     3     0     0     5
10    10     9     4     5     3     6     1
# ℹ 30 more rows

numsCL

# A tibble: 40 × 7
      nu    so  so_L  so_J    ec  ec_L  ec_J
   <int> <int> <int> <int> <int> <int> <int>
 1     1     5     9     6    20    12    26
 2     2    40    38    23    24    18    13
 3     3    35    25    39    32    21    27
 4     4     2     1     6    16    34     7
 5     5    11     4    23    39    36    36
 6     6    17    29     2     7    16     1
 7     7     5     9     6     7     7     1
 8     8    20    19    23    36    29    27
 9     9     5     9     6     1     1    22
10    10    20    19    23    16    23     7
# ℹ 30 more rows
…
